%YAML 1.1
%TAG !u! tag:unity3d.com,2011:
--- !u!1045 &1
EditorBuildSettings:
  m_ObjectHideFlags: 0
  serializedVersion: 2
  m_Scenes:
  - enabled: 1
    path: Assets/Scenes/MainMenu.unity
    guid: 8a3919feda3f2ed4bbcfa42281211552
  - enabled: 1
    path: Assets/Scenes/Level1.unity
    guid: fc88f79ff85746247ab89a110f1fdff7
